{
    "inputMessageMetadata": {
        "messagePayload": {
            "connectorName": "#_custom_mule_metadata_type_#",
            "typeId": "IDVCSV"
        }
    },
    "outputMessageMetadata": {},
    "id": "46b62b2c-bc2f-4bc8-9add-1a92b72f0766",
    "version": "5.2.0.0"
}